Lake Ice Phenology: Part 1
…
Question 5:

Use the add_predictions() and add_residuals() functions from the modelr package (installs with the tidyverse but you need to load it with library()) to add the predictions and residuals. This accomplishes the same thing above but doesn’t require you to specifically write our your model with the coefficients (thus is more scalable to other models)

Answer 5:

library(modelr)
sunapee <-add_predictions(sunapee, fit)
sunapee <- add_residuals(sunapee, fit)
sunapee

# A tibble: 157 × 8
   lake_name  year ice_off_doy did_not_freeze predicted residual  pred  resid
   <chr>     <dbl>       <dbl>          <dbl>     <dbl>    <dbl> <dbl>  <dbl>
 1 Sunapee    1869         130              0      121.     9.21  121.   9.21
 2 Sunapee    1870         130              0      121.     9.31  121.   9.31
 3 Sunapee    1871         102              0      121.   -18.6   121. -18.6 
 4 Sunapee    1872         124              0      120.     3.53  120.   3.53
 5 Sunapee    1873         126              0      120.     5.63  120.   5.63
 6 Sunapee    1874         129              0      120.     8.74  120.   8.74
 7 Sunapee    1875         132              0      120.    11.8   120.  11.8 
 8 Sunapee    1876         132              0      120.    12.0   120.  12.0 
 9 Sunapee    1877         115              0      120.    -4.94  120.  -4.94
10 Sunapee    1878         108              0      120.   -11.8   120. -11.8 
# ℹ 147 more rows
…
Answer 12:

Use a mix of code, figures, and text to present your analysis. If you want to compare slopes, be sure they are on the same plot.

early <- sunapee |>
  filter(year < 1970)
later <- sunapee |>
  filter(year >= 1970)

sunapee <- sunapee |>
  mutate(early = ifelse(year < 1970, 0, 1))
sunapee

# A tibble: 157 × 9
   lake_name  year ice_off_doy did_not_freeze predicted residual  pred  resid
   <chr>     <dbl>       <dbl>          <dbl>     <dbl>    <dbl> <dbl>  <dbl>
 1 Sunapee    1869         130              0      121.     9.21  121.   9.21
 2 Sunapee    1870         130              0      121.     9.31  121.   9.31
 3 Sunapee    1871         102              0      121.   -18.6   121. -18.6 
 4 Sunapee    1872         124              0      120.     3.53  120.   3.53
 5 Sunapee    1873         126              0      120.     5.63  120.   5.63
 6 Sunapee    1874         129              0      120.     8.74  120.   8.74
 7 Sunapee    1875         132              0      120.    11.8   120.  11.8 
 8 Sunapee    1876         132              0      120.    12.0   120.  12.0 
 9 Sunapee    1877         115              0      120.    -4.94  120.  -4.94
10 Sunapee    1878         108              0      120.   -11.8   120. -11.8 
# ℹ 147 more rows
# ℹ 1 more variable: early <dbl>
…
